{
  "type": "service_account",
  "project_id": "google_project_id(not_bot_id)",
  "private_key_id": "google_private_key_id",
  "private_key": "-----BEGIN PRIVATE KEY-----\nSomeBlaBlaBla=\n-----END PRIVATE KEY-----\n",
  "client_email": "see_dialogflow_settings_service_account@the_project_id.iam.gserviceaccount.com",
  "client_id": "client_number",
  "auth_uri": "https://accounts.google.com/o/oauth2/auth",
  "token_uri": "https://oauth2.googleapis.com/token",
  "auth_provider_x509_cert_url": "https://www.googleapis.com/oauth2/v1/certs",
  "client_x509_cert_url": "https://www.googleapis.com/robot/v1/metadata/x509/see_dialogflow_settings_service_account%40the_project_id.iam.gserviceaccount.com"
}
